Tommee Tippee Ctn Transition Cup,12,True,True
Heinz Baby Basics Non Spill Snack Pod ,7,True,True
Heinz Baby Basics Individual Feeding Bowls,2.1,True,True
Little Wishes Non Spill Cups 6 Months+,5,True,True
Tommee Tippee Ctn First Grown Up Cutlery Set,10,True,True
Little Wishes Cups Non-spill,5,True,True
Paw Patrol Mashems ,5,True,True
Playgro Bathtime Splashbook,5,True,True
Little Wishes Spoon And Fork Set ,3.5,True,True
Little Wishes Suction Plate ,4,True,True
Ty Gear Wristlet Kit ,10,True,True
Bff Mini Plush In Bag ,14,True,True
Bonds 100 Crew Socks Size 6-12m & 1-2y,10,True,True
Nuby Flip It No Spill Straw Cup 12+months 355ml,10,True,True
Huggies Ultimate Jumbo Infant Nappies,25,True,True
Huggies Ultra Dry Nappies Crawler 6-11kg Boy,16,True,True
Huggies Ultra Dry Nappies Crawler 6-11kg Girl,16,True,True
Nestle Cerelac Puree Apple Pouch,1.8,True,True
Nestle Cerelac Puree Banana & Apple Pouch,1.8,True,True
Nestle Cerelac Puree Apple & Peach Pouch,1.8,True,True
Nestle Cerelac Puree Apple & Mango Pouch,1.8,True,True
Karicare Plus+ Toddler Formula Stage 4 From 2 Years,16,True,True
Karicare Plus+ Toddler Formula Stage 3 12 Months+,16,True,True
S26 Original Alula Progress 6 - 12 Months,17,True,True
Aptamil Gold+ Ha Baby Formula Stage 1 From Birth 0-12 Months,27,True,True
Sma Infacare Newborn 0 - 12 Months,13,True,True
Aptamil Ar Gold Baby Formula 0-12 Months,27,True,True
S26 Gold Alula Newborn 0 -6 Months,23,True,True
Aptamil Colic & Constipation Infant Formula,28,True,True
